<svg width="24" height="23" viewBox="0 0 24 23" fill="none" xmlns="http://www.w3.org/2000/svg">
<rect x="0.333984" width="23" height="23" rx="11.5" fill="#C4C4C4"/>
<path fill-rule="evenodd" clip-rule="evenodd" d="M12.8007 16.2328V11.4104H14.1319L14.3083 9.74861H12.8007L12.803 8.91685C12.803 8.48343 12.8442 8.25118 13.4667 8.25118H14.2989V6.58917H12.9675C11.3683 6.58917 10.8054 7.39534 10.8054 8.75105V9.7488H9.80859V11.4106H10.8054V16.2328H12.8007Z" fill="white"/>
</svg>
